FINAL PROJECT
…
Under the null hypothesis, income level and life expectancy are
independent. To build the null distribution, we repeatedly permute the
income_level labels while keeping the life expectancy values fixed, and
recalculate the F-statistic for each permutation. Repeating this 1,000
times generates a distribution of F-values that would occur purely by
chance.

null_distribution1 <- null_hypothesis1 %>%
   generate(reps = 1000, type = "permute") %>%
   calculate(stat = "F")
null_distribution1

## Response: life_expectancy_at_birth (numeric)
## Explanatory: income_level (facto...
## # A tibble: 1,000 × 2
##    replicate  stat
##        <int> <dbl>
##  1         1 1.71 
##  2         2 0.926
##  3         3 0.126
##  4         4 0.321
##  5         5 0.258
##  6         6 0.340
##  7         7 2.28 
##  8         8 0.686
##  9         9 1.49 
## 10        10 1.08 
## # ℹ 990 more rows
…
1.2.2.2.2.4 Null
distribution

Under the null hypothesis, income level and life expectancy are
independent. We generate the null distribution through 1,000
permutations, calculating the F-statistic each time.

null_distribution2 <- null_hypothesis2 %>%
   generate(reps = 1000, type = "permute") %>%
   calculate(stat = "F")
null_distribution2

## Response: life_expectancy_at_birth (numeric)
## Explanatory: income_level (facto...
## # A tibble: 1,000 × 2
##    replicate  stat
##        <int> <dbl>
##  1         1 0.735
##  2         2 0.199
##  3         3 2.51 
##  4         4 0.124
##  5         5 0.393
##  6         6 0.169
##  7         7 0.119
##  8         8 1.03 
##  9         9 0.943
## 10        10 0.516
## # ℹ 990 more rows
…
1.2.2.2.3.4 Null
distribution

Under the null hypothesis, income level and life expectancy are
independent. We generate the null distribution through 1,000
permutations, calculating the F-statistic each time.

null_distribution3 <- null_hypothesis3 %>%
   generate(reps = 1000, type = "permute") %>%
   calculate(stat = "F")
null_distribution3

## Response: life_expectancy_at_birth (numeric)
## Explanatory: income_level (facto...
## # A tibble: 1,000 × 2
##    replicate   stat
##        <int>  <dbl>
##  1         1 1.27  
##  2         2 1.13  
##  3         3 0.856 
##  4         4 0.388 
##  5         5 1.45  
##  6         6 1.35  
##  7         7 0.0772
##  8         8 0.489 
##  9         9 2.23  
## 10        10 4.03  
## # ℹ 990 more rows
…
